my_blog - EX3R
…
# Importer la librairie RSQLite
library(RSQLite)
library(tibble)

# Charger la table olympics_athletes depuis la base de données
table_olympics <- dbReadTable(connexion, "olympics_athletes")

# Convertir la table en tibble
table_olympics_tibble <- as_tibble(table_olympics)

# Afficher les premières lignes du tibble
print(table_olympics_tibble)

# A tibble: 269,731 × 13
      ID Name      Sex     Age Height Weight Team  NOC   Games City  Sport Event
   <int> <chr>     <chr> <int>  <int>  <dbl> <chr> <chr> <chr> <chr> <chr> <chr>
 1     1 A Dijiang M        24    180     80 China CHN   1992… Barc… Bask… Bask…
 2     2 A Lamusi  M        23    170     60 China CHN   2012… Lond… Judo  Judo…
 3     3 Gunnar N… M        24     NA     NA Denm… DEN   1920… Antw… Foot… Foot…
 4     4 Edgar Li… M        34     NA     NA Denm… DEN   1900… Paris Tug-… Tug-…
 5     5 Christin… F        21    185     82 Neth… NED   1988… Calg… Spee… Spee…
 6     5 Christin… F        21    185     82 Neth… NED   1988… Calg… Spee… Spee…
 7     5 Christin… F        25    185     82 Neth… NED   1992… Albe… Spee… Spee…
 8     5 Christin… F        25    185     82 Neth… NED   1992… Albe… Spee… Spee…
 9     5 Christin… F        27    185     82 Neth… NED   1994… Lill… Spee… Spee…
10     5 Christin… F        27    185     82 Neth… NED   1994… Lill… Spee… Spee…
# ℹ 269,721 more rows
# ℹ 1 more variable: Medal <chr>
…
# Supposons que votre tibble s'appelle table_olympics_tibble

resultats_age_editions <- table_olympics_tibble %>%
  group_by(Year) %>%
  summarise(mean_age = mean(Age, na.rm = TRUE),
            youngest_athlete = min(Age, na.rm = TRUE),
            oldest_athlete = max(Age, na.rm = TRUE)) %>%
  arrange(mean_age)

# Afficher les résultats
print(resultats_age_editions)

# A tibble: 35 × 4
    Year mean_age youngest_athlete oldest_athlete
   <int>    <dbl>            <int>          <int>
 1  1896     23.6               10             40
 2  1980     23.7               13             70
 3  1976     23.8               12             70
 4  1984     23.9               12             60
 5  1988     24.1               11             70
 6  1968     24.2               11             68
 7  1972     24.3               12             69
 8  1992     24.3               11             62
 9  1994     24.4               13             46
10  1996     24.9               12             63
# ℹ 25 more rows
…
[1] "Discipline des JO d’été avec la taille maximale des athlètes féminines :"

print(discipline_max_height$Sport)

[1] "Diving"         "Figure Skating" "Swimming"      

# Afficher le nombre de fois où chaque discipline a été la discipline avec les plus grandes athlètes
print("Nombre de fois où chaque discipline a été la discipline avec les plus grandes athlètes :")

[1] "Nombre de fois où chaque discipline a été la discipline avec les plus grandes athlètes :"

print(resultats_taille_max_femmes)

# A tibble: 53 × 3
   Sport            total_max_height years_max_height
   <chr>                       <int> <list>          
 1 Alpine Skiing                  19 <int [1]>       
 2 Alpinism                        1 <int [1]>       
 3 Archery                        14 <int [2]>       
 4 Art Competitions                6 <int [1]>       
 5 Athletics                      21 <int [2]>       
 6 Badminton                       7 <int [1]>       
 7 Basketball                     11 <int [1]>       
 8 Beach Volleyball                6 <int [2]>       
 9 Biathlon                        7 <int [2]>       
10 Bobsleigh                       4 <int [1]>       
# ℹ 43 more rows
…
